{
  "baseYield": {
    "min": 2,
    "max": 3
  },
  "preferredBiomeTags": [
    "cobblemon:is_arid"
  ],
  "growthTime": {
    "min": 36,
    "max": 44
  },
  "refreshRate": {
    "min": 18,
    "max": 22
  },
  "favoriteMulches": [
    "sandy"
  ],
  "growthFactors": [],
  "randomizedGrowthPoints": true,
  "spawnConditions": [
    {
      "variant": "cobblemon:preferred_biome",
      "minGroveSize": 3,
      "maxGroveSize": 5
    }
  ],
  "growthPoints": [
    {
      "position": {
        "x": 8.0,
        "y": 12.0,
        "z": 8.0
      },
      "rotation": {
        "x": 0.0,
        "y": 0.0,
        "z": 0.0
      }
    },
    {
      "position": {
        "x": 8.0,
        "y": 16.0,
        "z": 8.0
      },
      "rotation": {
        "x": 0.0,
        "y": -180.0,
        "z": 0.0
      }
    },
    {
      "position": {
        "x": 8.0,
        "y": 20.0,
        "z": 8.0
      },
      "rotation": {
        "x": 0.0,
        "y": 0.0,
        "z": 0.0
      }
    },
    {
      "position": {
        "x": 8.0,
        "y": 24.0,
        "z": 8.0
      },
      "rotation": {
        "x": 0.0,
        "y": -180.0,
        "z": 0.0
      }
    },
    {
      "position": {
        "x": 8.0,
        "y": 28.0,
        "z": 8.0
      },
      "rotation": {
        "x": 0.0,
        "y": 0.0,
        "z": 0.0
      }
    },
    {
      "position": {
        "x": 8.0,
        "y": 32.0,
        "z": 8.0
      },
      "rotation": {
        "x": 0.0,
        "y": -180.0,
        "z": 0.0
      }
    },
    {
      "position": {
        "x": 8.0,
        "y": 36.0,
        "z": 8.0
      },
      "rotation": {
        "x": 0.0,
        "y": 0.0,
        "z": 0.0
      }
    },
    {
      "position": {
        "x": 8.0,
        "y": 40.0,
        "z": 8.0
      },
      "rotation": {
        "x": 0.0,
        "y": -180.0,
        "z": 0.0
      }
    },
    {
      "position": {
        "x": 8.0,
        "y": 44.0,
        "z": 8.0
      },
      "rotation": {
        "x": 0.0,
        "y": 0.0,
        "z": 0.0
      }
    },
    {
      "position": {
        "x": 8.0,
        "y": 48.0,
        "z": 8.0
      },
      "rotation": {
        "x": 0.0,
        "y": -180.0,
        "z": 0.0
      }
    }
  ],
  "stageOnePositioning": {
    "position": {
      "x": 8.15,
      "y": 2.5,
      "z": 8.1
    },
    "rotation": {
      "x": 5.0,
      "y": -10.0,
      "z": -7.5
    }
  },
  "mutations": {
    "cobblemon:oran_berry": "cobblemon:leppa_berry",
    "cobblemon:iapapa_berry": "cobblemon:nomel_berry"
  },
  "sproutShape": "sword-sprout",
  "matureShape": "sword-mature",
  "flavors": {
    "SPICY": 10,
    "SOUR": 20
  },
  "weight": 15.0,
  "tintIndexes": [],
  "flowerModel": "cobblemon:flower.geo",
  "flowerTexture": "cobblemon:flower",
  "fruitModel": "cobblemon:pinap_berry.geo",
  "fruitTexture": "cobblemon:pinap",
  "boneMealChance": 0.56
}