{
  "type": "minecraft:crafting_shaped",
  "category": "building",
  "key": {
    "#": {
      "item": "cobblemon:polished_sky_tumblestone_slab"
    }
  },
  "pattern": [
    "#",
    "#"
  ],
  "result": {
    "count": 1,
    "item": "cobblemon:chiseled_polished_sky_tumblestone"
  }
}