{
  "type": "minecraft:crafting_shaped",
  "category": "building",
  "pattern": [
    "##",
    "##"
  ],
  "key": {
    "#": {
      "item": "cobblemon:polished_tumblestone"
    }
  },
  "result": {
    "item": "cobblemon:tumblestone_bricks",
	"count": 4
  }
}