{
  "maxScale": 0.8,
  "yTranslation": 0.1,
  "yGrowthPoint": 0.5625,
  "animations": [
    "bedrock(amaura_fetus, sleep)"
  ],
  "quirks": [
    {
      "name": "quirk",
      "animations": [
        "bedrock(amaura_fetus, quirk)"
      ],
      "loopTimes": 1,
      "minSeconds": 30,
      "maxSeconds": 60
    }
  ]
}